module gitlab.com/t6085/console

go 1.19

require (
	github.com/blang/semver/v4 v4.0.0
	github.com/cheggaaa/pb/v3 v3.0.8
	github.com/dustin/go-humanize v1.0.0
	github.com/fatih/color v1.13.0
	github.com/go-openapi/errors v0.20.2
	github.com/go-openapi/loads v0.21.1
	github.com/go-openapi/runtime v0.23.3
	github.com/go-openapi/spec v0.20.5
	github.com/go-openapi/strfmt v0.21.2
	github.com/go-openapi/swag v0.21.1
	github.com/go-openapi/validate v0.21.0
	github.com/golang-jwt/jwt/v4 v4.4.1
	github.com/google/uuid v1.3.0
	github.com/gorilla/websocket v1.5.0
	github.com/jessevdk/go-flags v1.5.0
	github.com/klauspost/compress v1.15.1
	github.com/minio/cli v1.22.0
	github.com/minio/highwayhash v1.0.2
	github.com/minio/kes v0.19.2
	github.com/minio/madmin-go v1.4.3
	github.com/minio/mc v0.0.0-20220705180830-01b87ecc02ff
	github.com/minio/minio-go/v7 v7.0.30
	github.com/minio/operator v0.0.0-20220414212219-ba4c097324b2
	github.com/minio/pkg v1.1.23
	github.com/minio/selfupdate v0.4.0
	github.com/mitchellh/go-homedir v1.1.0
	github.com/rs/xid v1.4.0
	github.com/secure-io/sio-go v0.3.1
	github.com/stretchr/testify v1.7.1
	github.com/tidwall/gjson v1.14.0
	github.com/unrolled/secure v1.10.0
	golang.org/x/crypto v0.0.0-20220525230936-793ad666bf5e
	golang.org/x/net v0.0.0-20220421235706-1d1ef9303861
	golang.org/x/oauth2 v0.0.0-20220411215720-9780585627b5
	gopkg.in/yaml.v2 v2.4.0
	k8s.io/api v0.23.5
	k8s.io/apimachinery v0.23.5
	k8s.io/client-go v0.23.5
	k8s.io/utils v0.0.0-20220210201930-3a6ce19ff2f9
)

require (
	github.com/VividCortex/ewma v1.2.0 // indirect
	github.com/asaskevich/govalidator v0.0.0-20210307081110-f21760c49a8d // indirect
	github.com/beorn7/perks v1.0.1 // indirect
	github.com/cespare/xxhash/v2 v2.1.2 // indirect
	github.com/charmbracelet/bubbles v0.10.3 // indirect
	github.com/charmbracelet/bubbletea v0.20.0 // indirect
	github.com/charmbracelet/lipgloss v0.5.0 // indirect
	github.com/cheggaaa/pb v1.0.29 // indirect
	github.com/containerd/console v1.0.3 // indirect
	github.com/coreos/go-semver v0.3.0 // indirect
	github.com/coreos/go-systemd/v22 v22.3.2 // indirect
	github.com/davecgh/go-spew v1.1.1 // indirect
	github.com/decred/dcrd/dcrec/secp256k1/v4 v4.0.1 // indirect
	github.com/docker/go-units v0.4.0 // indirect
	github.com/evanphx/json-patch v5.6.0+incompatible // indirect
	github.com/fatih/structs v1.1.0 // indirect
	github.com/gdamore/encoding v1.0.0 // indirect
	github.com/gdamore/tcell/v2 v2.4.1-0.20210905002822-f057f0a857a1 // indirect
	github.com/go-logr/logr v1.2.2 // indirect
	github.com/go-ole/go-ole v1.2.6 // indirect
	github.com/go-openapi/analysis v0.21.2 // indirect
	github.com/go-openapi/jsonpointer v0.19.5 // indirect
	github.com/go-openapi/jsonreference v0.20.0 // indirect
	github.com/go-stack/stack v1.8.1 // indirect
	github.com/goccy/go-json v0.9.4 // indirect
	github.com/gogo/protobuf v1.3.2 // indirect
	github.com/golang-jwt/jwt v3.2.2+incompatible // indirect
	github.com/golang/protobuf v1.5.2 // indirect
	github.com/google/go-cmp v0.5.7 // indirect
	github.com/google/gofuzz v1.2.0 // indirect
	github.com/google/shlex v0.0.0-20191202100458-e7afc7fbc510 // indirect
	github.com/googleapis/gnostic v0.5.5 // indirect
	github.com/hashicorp/errwrap v1.1.0 // indirect
	github.com/hashicorp/go-multierror v1.1.1 // indirect
	github.com/inconshreveable/mousetrap v1.0.0 // indirect
	github.com/josharian/intern v1.0.0 // indirect
	github.com/json-iterator/go v1.1.12 // indirect
	github.com/klauspost/cpuid/v2 v2.0.11 // indirect
	github.com/lestrrat-go/backoff/v2 v2.0.8 // indirect
	github.com/lestrrat-go/blackmagic v1.0.0 // indirect
	github.com/lestrrat-go/httpcc v1.0.0 // indirect
	github.com/lestrrat-go/iter v1.0.1 // indirect
	github.com/lestrrat-go/jwx v1.2.19 // indirect
	github.com/lestrrat-go/option v1.0.0 // indirect
	github.com/lucasb-eyer/go-colorful v1.2.0 // indirect
	github.com/lufia/plan9stats v0.0.0-20211012122336-39d0f177ccd0 // indirect
	github.com/mailru/easyjson v0.7.7 // indirect
	github.com/mattn/go-colorable v0.1.12 // indirect
	github.com/mattn/go-ieproxy v0.0.1 // indirect
	github.com/mattn/go-isatty v0.0.14 // indirect
	github.com/mattn/go-runewidth v0.0.13 // indirect
	github.com/matttproud/golang_protobuf_extensions v1.0.2-0.20181231171920-c182affec369 // indirect
	github.com/minio/colorjson v1.0.2 // indirect
	github.com/minio/filepath v1.0.0 // indirect
	github.com/minio/md5-simd v1.1.2 // indirect
	github.com/minio/sha256-simd v1.0.0 // indirect
	github.com/mitchellh/mapstructure v1.4.3 // indirect
	github.com/modern-go/concurrent v0.0.0-20180306012644-bacd9c7ef1dd // indirect
	github.com/modern-go/reflect2 v1.0.2 // indirect
	github.com/montanaflynn/stats v0.6.6 // indirect
	github.com/muesli/ansi v0.0.0-20211031195517-c9f0611b6c70 // indirect
	github.com/muesli/reflow v0.3.0 // indirect
	github.com/muesli/termenv v0.11.1-0.20220212125758-44cd13922739 // indirect
	github.com/navidys/tvxwidgets v0.1.0 // indirect
	github.com/oklog/ulid v1.3.1 // indirect
	github.com/olekukonko/tablewriter v0.0.5 // indirect
	github.com/philhofer/fwd v1.1.2-0.20210722190033-5c56ac6d0bb9 // indirect
	github.com/pkg/errors v0.9.1 // indirect
	github.com/pkg/xattr v0.4.5 // indirect
	github.com/pmezard/go-difflib v1.0.1-0.20181226105442-5d4384ee4fb2 // indirect
	github.com/posener/complete v1.2.3 // indirect
	github.com/power-devops/perfstat v0.0.0-20220216144756-c35f1ee13d7c // indirect
	github.com/prometheus/client_golang v1.12.1 // indirect
	github.com/prometheus/client_model v0.2.0 // indirect
	github.com/prometheus/common v0.33.0 // indirect
	github.com/prometheus/procfs v0.7.3 // indirect
	github.com/prometheus/prom2json v1.3.1 // indirect
	github.com/rivo/tview v0.0.0-20220216162559-96063d6082f3 // indirect
	github.com/rivo/uniseg v0.2.0 // indirect
	github.com/rjeczalik/notify v0.9.2 // indirect
	github.com/shirou/gopsutil/v3 v3.22.2 // indirect
	github.com/sirupsen/logrus v1.8.1 // indirect
	github.com/tidwall/match v1.1.1 // indirect
	github.com/tidwall/pretty v1.2.0 // indirect
	github.com/tinylib/msgp v1.1.7-0.20211026165309-e818a1881b0e // indirect
	github.com/tklauser/go-sysconf v0.3.10 // indirect
	github.com/tklauser/numcpus v0.4.0 // indirect
	github.com/yusufpapurcu/wmi v1.2.2 // indirect
	go.etcd.io/etcd/api/v3 v3.5.2 // indirect
	go.etcd.io/etcd/client/pkg/v3 v3.5.2 // indirect
	go.etcd.io/etcd/client/v3 v3.5.2 // indirect
	go.mongodb.org/mongo-driver v1.8.4 // indirect
	go.uber.org/atomic v1.9.0 // indirect
	go.uber.org/multierr v1.8.0 // indirect
	go.uber.org/zap v1.21.0 // indirect
	golang.org/x/sync v0.0.0-20210220032951-036812b2e83c // indirect
	golang.org/x/sys v0.0.0-20220412211240-33da011f77ad // indirect
	golang.org/x/term v0.0.0-20210927222741-03fcf44c2211 // indirect
	golang.org/x/text v0.3.7 // indirect
	golang.org/x/time v0.0.0-20220224211638-0e9765cccd65 // indirect
	google.golang.org/appengine v1.6.7 // indirect
	google.golang.org/genproto v0.0.0-20220302033224-9aa15565e42a // indirect
	google.golang.org/grpc v1.44.0 // indirect
	google.golang.org/protobuf v1.27.1 // indirect
	gopkg.in/h2non/filetype.v1 v1.0.5 // indirect
	gopkg.in/inf.v0 v0.9.1 // indirect
	gopkg.in/ini.v1 v1.66.4 // indirect
	gopkg.in/yaml.v3 v3.0.1 // indirect
	k8s.io/klog/v2 v2.40.1 // indirect
	k8s.io/kube-openapi v0.0.0-20220124234850-424119656bbf // indirect
	sigs.k8s.io/controller-runtime v0.11.1 // indirect
	sigs.k8s.io/json v0.0.0-20211208200746-9f7c6b3444d2 // indirect
	sigs.k8s.io/structured-merge-diff/v4 v4.2.1 // indirect
	sigs.k8s.io/yaml v1.3.0 // indirect
)
